{
    "data": [
        {
            "id": 1,
            "display_name": "Schieferkopf, Lieu Dit Buehl Riesling",
            "color": "white",
            "type": "wine",
            "sub_type": "still",
            "residual_sugar": null,
            "producer": {
                "id": 1,
                "name": "Schieferkopf",
                "title": null,
                "display_name": "Schieferkopf"
            },
            "region": {
                "id": 1,
                "name": "Alsace",
                "country": "fr",
                "language": "en"
            }
        },
        {
            "id": 2,
            "display_name": "Schieferkopf, Riesling Grand Cru, Kastelberg",
            "color": "white",
            "type": "wine",
            "sub_type": "still",
            "residual_sugar": null,
            "producer": {
                "id": 1,
                "name": "Schieferkopf",
                "title": null,
                "display_name": "Schieferkopf"
            },
            "region": {
                "id": 2,
                "name": "Kastelberg",
                "country": "fr",
                "language": "en"
            }
        },
        {
            "id": 3,
            "display_name": "Schieferkopf, Pinot Gris",
            "color": "white",
            "type": "wine",
            "sub_type": "still",
            "residual_sugar": null,
            "producer": {
                "id": 1,
                "name": "Schieferkopf",
                "title": null,
                "display_name": "Schieferkopf"
            },
            "region": {
                "id": 1,
                "name": "Alsace",
                "country": "fr",
                "language": "en"
            }
        }
    ],
    "meta": {
        "current_page": 1,
        "last_page": 88246,
        "per_page": 3,
        "total": 264737,
        "from": 1,
        "to": 3
    }
}
